// Vitest Snapshot v1, https://vitest.dev/guide/snapshot.html

exports[`Information > should match snapshot 1`] = `
{
  "asFragment": [Function],
  "baseElement": <body>
    <div>
      <div
        class="_container_94436f"
      >
        <h1
          class="_information_94436f"
        >
          3
          -комнатная квартира, 
          43
           м²
        </h1>
        <p
          class="_address_94436f"
        >
          Address
        </p>
        <p
          class="_price_94436f"
        >
          12 000
           ₽ за сутки
        </p>
        <div
          class="_action_94436f"
        >
          <button
            class="_button_b22f72 _button_94436f _primary_b22f72"
          >
            Показать телефон
            <span
              class="_phone_94436f"
            >
               +7 (XXX) XXX-XX-XX
            </span>
          </button>
        </div>
      </div>
    </div>
  </body>,
  "container": <div>
    <div
      class="_container_94436f"
    >
      <h1
        class="_information_94436f"
      >
        3
        -комнатная квартира, 
        43
         м²
      </h1>
      <p
        class="_address_94436f"
      >
        Address
      </p>
      <p
        class="_price_94436f"
      >
        12 000
         ₽ за сутки
      </p>
      <div
        class="_action_94436f"
      >
        <button
          class="_button_b22f72 _button_94436f _primary_b22f72"
        >
          Показать телефон
          <span
            class="_phone_94436f"
          >
             +7 (XXX) XXX-XX-XX
          </span>
        </button>
      </div>
    </div>
  </div>,
  "debug": [Function],
  "findAllByAltText": [Function],
  "findAllByDisplayValue": [Function],
  "findAllByLabelText": [Function],
  "findAllByPlaceholderText": [Function],
  "findAllByRole": [Function],
  "findAllByTestId": [Function],
  "findAllByText": [Function],
  "findAllByTitle": [Function],
  "findByAltText": [Function],
  "findByDisplayValue": [Function],
  "findByLabelText": [Function],
  "findByPlaceholderText": [Function],
  "findByRole": [Function],
  "findByTestId": [Function],
  "findByText": [Function],
  "findByTitle": [Function],
  "getAllByAltText": [Function],
  "getAllByDisplayValue": [Function],
  "getAllByLabelText": [Function],
  "getAllByPlaceholderText": [Function],
  "getAllByRole": [Function],
  "getAllByTestId": [Function],
  "getAllByText": [Function],
  "getAllByTitle": [Function],
  "getByAltText": [Function],
  "getByDisplayValue": [Function],
  "getByLabelText": [Function],
  "getByPlaceholderText": [Function],
  "getByRole": [Function],
  "getByTestId": [Function],
  "getByText": [Function],
  "getByTitle": [Function],
  "queryAllByAltText": [Function],
  "queryAllByDisplayValue": [Function],
  "queryAllByLabelText": [Function],
  "queryAllByPlaceholderText": [Function],
  "queryAllByRole": [Function],
  "queryAllByTestId": [Function],
  "queryAllByText": [Function],
  "queryAllByTitle": [Function],
  "queryByAltText": [Function],
  "queryByDisplayValue": [Function],
  "queryByLabelText": [Function],
  "queryByPlaceholderText": [Function],
  "queryByRole": [Function],
  "queryByTestId": [Function],
  "queryByText": [Function],
  "queryByTitle": [Function],
  "rerender": [Function],
  "unmount": [Function],
}
`;
