<svg width="165" height="30" viewBox="0 0 165 30" fill="none" xmlns="http://www.w3.org/2000/svg">
<path d="M0.735107 12.6901C0.735107 11.5889 1.23568 10.5474 2.09559 9.85949L12.0643 1.88449C13.3883 0.825357 15.2695 0.825358 16.5934 1.88449L26.5621 9.85949C27.422 10.5474 27.9226 11.5889 27.9226 12.6901V25.4479C27.9226 27.4499 26.2996 29.0729 24.2976 29.0729H4.36011C2.35808 29.0729 0.735107 27.4499 0.735107 25.4479V12.6901Z" fill="#2F80ED"/>
<path d="M38.8061 21.8078C38.4701 21.8078 38.2241 21.7598 38.0681 21.6638C37.9241 21.5678 37.8281 21.4358 37.7801 21.2678C37.7441 21.0878 37.7261 20.9018 37.7261 20.7098V10.3238C37.7261 10.1318 37.7501 9.95777 37.7981 9.80177C37.8461 9.63377 37.9421 9.50177 38.0861 9.40577C38.2421 9.29777 38.4881 9.24377 38.8241 9.24377H42.6761C43.2281 9.24377 43.7501 9.33377 44.2421 9.51377C44.7461 9.68177 45.1961 9.94577 45.5921 10.3058C45.9881 10.6538 46.3001 11.0978 46.5281 11.6378C46.7681 12.1658 46.8881 12.7838 46.8881 13.4918C46.8881 13.9598 46.8161 14.4278 46.6721 14.8958C46.5281 15.3518 46.3121 15.7778 46.0241 16.1738C45.7481 16.5578 45.3941 16.8878 44.9621 17.1638C44.5301 17.4398 44.0201 17.6198 43.4321 17.7038H39.9041V20.7278C39.9041 20.9198 39.8801 21.0998 39.8321 21.2678C39.7961 21.4358 39.7001 21.5678 39.5441 21.6638C39.4001 21.7598 39.1541 21.8078 38.8061 21.8078ZM46.4741 21.5378C46.1261 21.7778 45.8381 21.8678 45.6101 21.8078C45.3941 21.7478 45.1781 21.5558 44.9621 21.2318L41.9381 16.6598L44.3681 16.3358L46.7621 19.9718C46.9301 20.2118 47.0321 20.4158 47.0681 20.5838C47.1041 20.7518 47.0741 20.9078 46.9781 21.0518C46.8821 21.1958 46.7141 21.3578 46.4741 21.5378ZM39.9041 15.5438H42.9461C43.1621 15.5438 43.3721 15.5078 43.5761 15.4358C43.7921 15.3518 43.9841 15.2258 44.1521 15.0578C44.3201 14.8778 44.4521 14.6618 44.5481 14.4098C44.6561 14.1458 44.7101 13.8338 44.7101 13.4738C44.7101 13.0418 44.6261 12.6758 44.4581 12.3758C44.2901 12.0638 44.0501 11.8298 43.7381 11.6738C43.4381 11.5058 43.0721 11.4218 42.6401 11.4218H39.9041V15.5438Z" fill="#040303"/>
<path d="M52.7855 21.9338C52.0055 21.9338 51.3215 21.8078 50.7335 21.5558C50.1575 21.3038 49.6715 20.9618 49.2755 20.5298C48.8915 20.0858 48.5975 19.5938 48.3935 19.0538C48.2015 18.5018 48.1055 17.9318 48.1055 17.3438C48.1055 16.4798 48.3035 15.7118 48.6995 15.0398C49.0955 14.3678 49.6415 13.8398 50.3375 13.4558C51.0455 13.0718 51.8555 12.8798 52.7675 12.8798C53.4155 12.8798 53.9855 12.9818 54.4775 13.1858C54.9695 13.3898 55.3775 13.6598 55.7015 13.9958C56.0375 14.3198 56.2895 14.6798 56.4575 15.0758C56.6375 15.4718 56.7275 15.8558 56.7275 16.2278C56.7275 16.8638 56.5715 17.3258 56.2595 17.6138C55.9595 17.9018 55.5815 18.0458 55.1255 18.0458H50.3735C50.3855 18.4538 50.5115 18.8078 50.7515 19.1078C51.0035 19.4078 51.3155 19.6418 51.6875 19.8098C52.0715 19.9658 52.4615 20.0438 52.8575 20.0438C53.1575 20.0438 53.4215 20.0258 53.6495 19.9898C53.8895 19.9538 54.0935 19.9118 54.2615 19.8638C54.4295 19.8038 54.5735 19.7438 54.6935 19.6838C54.8255 19.6238 54.9455 19.5698 55.0535 19.5218C55.1615 19.4738 55.2635 19.4438 55.3595 19.4318C55.4915 19.4198 55.6235 19.4498 55.7555 19.5218C55.8875 19.5938 55.9955 19.7198 56.0795 19.8998C56.1515 20.0198 56.1995 20.1338 56.2235 20.2418C56.2595 20.3378 56.2775 20.4338 56.2775 20.5298C56.2775 20.7698 56.1335 20.9978 55.8455 21.2138C55.5575 21.4178 55.1495 21.5858 54.6215 21.7178C54.1055 21.8618 53.4935 21.9338 52.7855 21.9338ZM50.3735 16.7678H54.0635C54.2675 16.7678 54.4235 16.7378 54.5315 16.6778C54.6395 16.6058 54.6935 16.4618 54.6935 16.2458C54.6935 15.9698 54.6095 15.7238 54.4415 15.5078C54.2735 15.2798 54.0455 15.1058 53.7575 14.9858C53.4695 14.8538 53.1335 14.7878 52.7495 14.7878C52.3055 14.7878 51.9035 14.8778 51.5435 15.0578C51.1835 15.2258 50.8955 15.4598 50.6795 15.7598C50.4755 16.0598 50.3735 16.3958 50.3735 16.7678Z" fill="#040303"/>
<path d="M59.4466 21.8078C59.1226 21.8078 58.8826 21.7538 58.7266 21.6458C58.5826 21.5498 58.4926 21.4238 58.4566 21.2678C58.4206 21.0998 58.4026 20.9138 58.4026 20.7098V13.9778C58.4026 13.7858 58.4206 13.6118 58.4566 13.4558C58.4926 13.2998 58.5886 13.1798 58.7446 13.0958C58.9006 12.9998 59.1406 12.9518 59.4646 12.9518C59.7526 12.9518 59.9686 12.9878 60.1126 13.0598C60.2566 13.1318 60.3526 13.2218 60.4006 13.3298C60.4486 13.4378 60.4726 13.5458 60.4726 13.6538C60.4846 13.7618 60.4966 13.8458 60.5086 13.9058L60.4366 14.4818C60.5086 14.2898 60.6286 14.1038 60.7966 13.9238C60.9646 13.7438 61.1686 13.5818 61.4086 13.4378C61.6486 13.2818 61.9066 13.1618 62.1826 13.0778C62.4706 12.9818 62.7646 12.9338 63.0646 12.9338C63.6286 12.9338 64.1326 13.0358 64.5766 13.2398C65.0206 13.4438 65.3986 13.7318 65.7106 14.1038C66.0346 14.4758 66.2806 14.9198 66.4486 15.4358C66.6166 15.9398 66.7006 16.5098 66.7006 17.1458V20.7278C66.7006 20.9318 66.6766 21.1178 66.6286 21.2858C66.5926 21.4418 66.5026 21.5678 66.3586 21.6638C66.2146 21.7598 65.9686 21.8078 65.6206 21.8078C65.2846 21.8078 65.0386 21.7538 64.8826 21.6458C64.7266 21.5498 64.6306 21.4238 64.5946 21.2678C64.5586 21.0998 64.5406 20.9138 64.5406 20.7098V17.1278C64.5406 16.6958 64.4626 16.3238 64.3066 16.0118C64.1626 15.6998 63.9466 15.4598 63.6586 15.2918C63.3826 15.1238 63.0286 15.0398 62.5966 15.0398C62.1766 15.0398 61.8106 15.1298 61.4986 15.3098C61.1866 15.4778 60.9466 15.7178 60.7786 16.0298C60.6106 16.3418 60.5266 16.7078 60.5266 17.1278V20.7278C60.5266 20.9318 60.5086 21.1178 60.4726 21.2858C60.4366 21.4418 60.3406 21.5678 60.1846 21.6638C60.0406 21.7598 59.7946 21.8078 59.4466 21.8078Z" fill="#040303"/>
<path d="M72.8351 21.8258C72.2471 21.8258 71.7431 21.7658 71.3231 21.6458C70.9031 21.5258 70.5611 21.3398 70.2971 21.0878C70.0331 20.8358 69.8351 20.5118 69.7031 20.1158C69.5831 19.7078 69.5231 19.2278 69.5231 18.6758V11.0438C69.5231 10.8278 69.5411 10.6418 69.5771 10.4858C69.6251 10.3298 69.7211 10.2098 69.8651 10.1258C70.0211 10.0298 70.2611 9.98177 70.5851 9.98177C70.9211 9.98177 71.1611 10.0298 71.3051 10.1258C71.4611 10.2218 71.5571 10.3538 71.5931 10.5218C71.6411 10.6778 71.6651 10.8518 71.6651 11.0438V18.6038C71.6651 18.8558 71.6831 19.0598 71.7191 19.2158C71.7671 19.3718 71.8331 19.4918 71.9171 19.5758C72.0131 19.6478 72.1331 19.7018 72.2771 19.7378C72.4331 19.7618 72.6191 19.7738 72.8351 19.7738C73.0631 19.7738 73.2551 19.7918 73.4111 19.8278C73.5791 19.8638 73.7051 19.9538 73.7891 20.0978C73.8731 20.2298 73.9151 20.4518 73.9151 20.7638C73.9151 21.0998 73.8611 21.3458 73.7531 21.5018C73.6571 21.6458 73.5251 21.7358 73.3571 21.7718C73.2011 21.8078 73.0271 21.8258 72.8351 21.8258ZM68.7851 13.1318L70.6391 13.1498L73.1231 13.0778C73.3271 13.0778 73.5071 13.1018 73.6631 13.1498C73.8311 13.1858 73.9631 13.2818 74.0591 13.4378C74.1551 13.5818 74.2031 13.8218 74.2031 14.1578C74.2031 14.4698 74.1551 14.7038 74.0591 14.8598C73.9631 15.0158 73.8371 15.1178 73.6811 15.1658C73.5251 15.2018 73.3451 15.2198 73.1411 15.2198L70.7291 15.1838L68.7311 15.2018C68.4311 15.1898 68.2211 15.1058 68.1011 14.9498C67.9931 14.7818 67.9391 14.5118 67.9391 14.1398C67.9391 13.7918 68.0051 13.5398 68.1371 13.3838C68.2811 13.2158 68.4971 13.1318 68.7851 13.1318Z" fill="#040303"/>
<path d="M87.1371 20.2958C87.2571 20.5238 87.3171 20.7278 87.3171 20.9078C87.3291 21.0758 87.2811 21.2258 87.1731 21.3578C87.0651 21.4778 86.8851 21.6038 86.6331 21.7358C86.2491 21.9158 85.9491 21.9638 85.7331 21.8798C85.5291 21.7958 85.3371 21.5618 85.1571 21.1778L81.1431 12.6998L77.1471 21.1778C76.9671 21.5498 76.7691 21.7718 76.5531 21.8438C76.3371 21.9278 76.0371 21.8858 75.6531 21.7178C75.4131 21.5978 75.2331 21.4718 75.1131 21.3398C75.0051 21.2078 74.9571 21.0518 74.9691 20.8718C74.9931 20.6798 75.0711 20.4518 75.2031 20.1878L80.1531 9.87377C80.2491 9.68177 80.3871 9.53177 80.5671 9.42377C80.7591 9.30377 80.9571 9.24377 81.1611 9.24377C81.3051 9.24377 81.4371 9.26777 81.5571 9.31577C81.6771 9.36377 81.7851 9.43577 81.8811 9.53177C81.9891 9.62777 82.0791 9.74777 82.1511 9.89177L87.1371 20.2958ZM77.9391 18.5498L78.8031 16.6958H83.5011L84.3651 18.5498H77.9391Z" fill="#040303"/>
<path d="M93.168 21.6998C92.58 21.6998 92.052 21.5918 91.584 21.3758C91.128 21.1478 90.738 20.8358 90.414 20.4398C90.102 20.0318 89.862 19.5638 89.694 19.0358C89.538 18.5078 89.46 17.9378 89.46 17.3258C89.472 16.7138 89.562 16.1438 89.73 15.6158C89.898 15.0758 90.138 14.6078 90.45 14.2118C90.774 13.8158 91.164 13.5038 91.62 13.2758C92.076 13.0478 92.592 12.9338 93.168 12.9338C93.72 12.9338 94.236 13.0478 94.716 13.2758C95.208 13.5038 95.64 13.8218 96.012 14.2298C96.396 14.6378 96.696 15.1118 96.912 15.6518C97.128 16.1798 97.236 16.7498 97.236 17.3618C97.236 17.9858 97.128 18.5618 96.912 19.0898C96.696 19.6178 96.402 20.0798 96.03 20.4758C95.658 20.8598 95.226 21.1598 94.734 21.3758C94.242 21.5918 93.72 21.6998 93.168 21.6998ZM89.568 25.4438C89.244 25.4438 89.004 25.3958 88.848 25.2998C88.692 25.2038 88.596 25.0778 88.56 24.9218C88.524 24.7658 88.506 24.5858 88.506 24.3818V14.0318C88.506 13.8278 88.524 13.6478 88.56 13.4918C88.596 13.3358 88.686 13.2098 88.83 13.1138C88.986 13.0058 89.226 12.9518 89.55 12.9518C89.862 12.9518 90.108 12.9998 90.288 13.0958C90.468 13.1918 90.588 13.3538 90.648 13.5818V24.3638C90.66 24.5678 90.642 24.7478 90.594 24.9038C90.558 25.0718 90.462 25.2038 90.306 25.2998C90.15 25.3958 89.904 25.4438 89.568 25.4438ZM92.88 19.6838C93.3 19.6838 93.678 19.5878 94.014 19.3958C94.35 19.1918 94.614 18.9158 94.806 18.5678C95.01 18.2078 95.112 17.8058 95.112 17.3618C95.112 16.9058 95.01 16.5038 94.806 16.1558C94.614 15.8078 94.35 15.5378 94.014 15.3458C93.678 15.1418 93.3 15.0398 92.88 15.0398C92.472 15.0398 92.1 15.1418 91.764 15.3458C91.428 15.5498 91.158 15.8258 90.954 16.1738C90.762 16.5098 90.666 16.9058 90.666 17.3618C90.666 17.8058 90.762 18.2078 90.954 18.5678C91.158 18.9158 91.428 19.1918 91.764 19.3958C92.1 19.5878 92.472 19.6838 92.88 19.6838Z" fill="#040303"/>
<path d="M106.317 21.7898C105.969 21.7898 105.711 21.7238 105.543 21.5918C105.375 21.4598 105.291 21.2798 105.291 21.0518L105.417 20.4578C105.321 20.6138 105.159 20.7998 104.931 21.0158C104.703 21.2198 104.403 21.4058 104.031 21.5738C103.659 21.7298 103.209 21.8078 102.681 21.8078C102.117 21.8078 101.583 21.6938 101.079 21.4658C100.587 21.2258 100.149 20.9018 99.7646 20.4938C99.3926 20.0738 99.0926 19.5998 98.8646 19.0718C98.6486 18.5318 98.5406 17.9558 98.5406 17.3438C98.5406 16.7558 98.6486 16.2038 98.8646 15.6878C99.0926 15.1598 99.3986 14.6918 99.7826 14.2838C100.167 13.8758 100.605 13.5578 101.097 13.3298C101.601 13.0898 102.129 12.9698 102.681 12.9698C103.173 12.9698 103.587 13.0358 103.923 13.1678C104.271 13.2998 104.565 13.4678 104.805 13.6718C105.045 13.8638 105.243 14.0678 105.399 14.2838L105.291 13.7618C105.291 13.4978 105.375 13.2998 105.543 13.1678C105.711 13.0238 105.975 12.9518 106.335 12.9518C106.671 12.9518 106.911 13.0058 107.055 13.1138C107.199 13.2098 107.289 13.3478 107.325 13.5278C107.361 13.6958 107.379 13.8878 107.379 14.1038V20.6918C107.379 20.8958 107.361 21.0818 107.325 21.2498C107.289 21.4178 107.193 21.5498 107.037 21.6458C106.893 21.7418 106.653 21.7898 106.317 21.7898ZM103.005 19.7018C103.413 19.7018 103.779 19.5998 104.103 19.3958C104.427 19.1918 104.685 18.9158 104.877 18.5678C105.081 18.2078 105.183 17.8118 105.183 17.3798C105.183 16.9118 105.081 16.5038 104.877 16.1558C104.673 15.8078 104.403 15.5378 104.067 15.3458C103.743 15.1418 103.377 15.0398 102.969 15.0398C102.525 15.0398 102.129 15.1478 101.781 15.3638C101.433 15.5678 101.157 15.8498 100.953 16.2098C100.761 16.5578 100.665 16.9538 100.665 17.3978C100.665 17.8298 100.767 18.2198 100.971 18.5678C101.175 18.9158 101.451 19.1918 101.799 19.3958C102.159 19.5998 102.561 19.7018 103.005 19.7018Z" fill="#040303"/>
<path d="M110.427 21.8258C110.103 21.8258 109.863 21.7718 109.707 21.6638C109.563 21.5678 109.473 21.4358 109.437 21.2678C109.401 21.0998 109.383 20.9138 109.383 20.7098V14.0318C109.383 13.8158 109.401 13.6298 109.437 13.4738C109.473 13.3058 109.563 13.1798 109.707 13.0958C109.863 12.9998 110.109 12.9518 110.445 12.9518C110.769 12.9518 111.003 12.9938 111.147 13.0778C111.303 13.1618 111.399 13.2698 111.435 13.4018C111.483 13.5218 111.507 13.6418 111.507 13.7618L111.363 14.0858C111.423 13.9898 111.507 13.8758 111.615 13.7438C111.723 13.5998 111.867 13.4618 112.047 13.3298C112.227 13.1858 112.443 13.0718 112.695 12.9878C112.947 12.8918 113.247 12.8438 113.595 12.8438C113.739 12.8438 113.889 12.8618 114.045 12.8978C114.213 12.9218 114.375 12.9638 114.531 13.0238C114.699 13.0718 114.849 13.1378 114.981 13.2218C115.113 13.3058 115.215 13.4078 115.287 13.5278C115.359 13.6358 115.395 13.7618 115.395 13.9058C115.395 14.2898 115.299 14.6138 115.107 14.8778C114.915 15.1418 114.687 15.2738 114.423 15.2738C114.243 15.2738 114.111 15.2558 114.027 15.2198C113.943 15.1838 113.871 15.1418 113.811 15.0938C113.763 15.0458 113.685 15.0038 113.577 14.9678C113.481 14.9318 113.325 14.9138 113.109 14.9138C112.929 14.9138 112.743 14.9438 112.551 15.0038C112.371 15.0638 112.203 15.1538 112.047 15.2738C111.891 15.3938 111.765 15.5498 111.669 15.7418C111.573 15.9218 111.525 16.1318 111.525 16.3718V20.7458C111.525 20.9498 111.507 21.1358 111.471 21.3038C111.435 21.4598 111.339 21.5858 111.183 21.6818C111.027 21.7778 110.775 21.8258 110.427 21.8258Z" fill="#040303"/>
<path d="M121.178 21.8258C120.59 21.8258 120.086 21.7658 119.666 21.6458C119.246 21.5258 118.904 21.3398 118.64 21.0878C118.376 20.8358 118.178 20.5118 118.046 20.1158C117.926 19.7078 117.866 19.2278 117.866 18.6758V11.0438C117.866 10.8278 117.884 10.6418 117.92 10.4858C117.968 10.3298 118.064 10.2098 118.208 10.1258C118.364 10.0298 118.604 9.98177 118.928 9.98177C119.264 9.98177 119.504 10.0298 119.648 10.1258C119.804 10.2218 119.9 10.3538 119.936 10.5218C119.984 10.6778 120.008 10.8518 120.008 11.0438V18.6038C120.008 18.8558 120.026 19.0598 120.062 19.2158C120.11 19.3718 120.176 19.4918 120.26 19.5758C120.356 19.6478 120.476 19.7018 120.62 19.7378C120.776 19.7618 120.962 19.7738 121.178 19.7738C121.406 19.7738 121.598 19.7918 121.754 19.8278C121.922 19.8638 122.048 19.9538 122.132 20.0978C122.216 20.2298 122.258 20.4518 122.258 20.7638C122.258 21.0998 122.204 21.3458 122.096 21.5018C122 21.6458 121.868 21.7358 121.7 21.7718C121.544 21.8078 121.37 21.8258 121.178 21.8258ZM117.128 13.1318L118.982 13.1498L121.466 13.0778C121.67 13.0778 121.85 13.1018 122.006 13.1498C122.174 13.1858 122.306 13.2818 122.402 13.4378C122.498 13.5818 122.546 13.8218 122.546 14.1578C122.546 14.4698 122.498 14.7038 122.402 14.8598C122.306 15.0158 122.18 15.1178 122.024 15.1658C121.868 15.2018 121.688 15.2198 121.484 15.2198L119.072 15.1838L117.074 15.2018C116.774 15.1898 116.564 15.1058 116.444 14.9498C116.336 14.7818 116.282 14.5118 116.282 14.1398C116.282 13.7918 116.348 13.5398 116.48 13.3838C116.624 13.2158 116.84 13.1318 117.128 13.1318Z" fill="#040303"/>
<path d="M125.112 21.8078C124.788 21.8078 124.548 21.7598 124.392 21.6638C124.248 21.5678 124.158 21.4358 124.122 21.2678C124.086 21.0998 124.068 20.9198 124.068 20.7278V13.9958C124.068 13.8038 124.086 13.6298 124.122 13.4738C124.158 13.3178 124.254 13.1918 124.41 13.0958C124.566 12.9998 124.812 12.9518 125.148 12.9518C125.496 12.9518 125.748 13.0238 125.904 13.1678C126.072 13.3118 126.156 13.5398 126.156 13.8518L125.994 14.3558C126.054 14.2238 126.156 14.0798 126.3 13.9238C126.444 13.7678 126.618 13.6118 126.822 13.4558C127.038 13.2998 127.278 13.1738 127.542 13.0778C127.806 12.9818 128.082 12.9338 128.37 12.9338C128.766 12.9338 129.126 12.9998 129.45 13.1318C129.786 13.2638 130.08 13.4558 130.332 13.7078C130.596 13.9598 130.824 14.2658 131.016 14.6258C131.22 14.3138 131.448 14.0318 131.7 13.7798C131.952 13.5158 132.246 13.3118 132.582 13.1678C132.918 13.0118 133.296 12.9338 133.716 12.9338C134.412 12.9338 134.994 13.1078 135.462 13.4558C135.942 13.8038 136.302 14.3018 136.542 14.9498C136.794 15.5858 136.92 16.3478 136.92 17.2358V20.7278C136.92 20.9318 136.896 21.1178 136.848 21.2858C136.812 21.4418 136.716 21.5678 136.56 21.6638C136.416 21.7598 136.176 21.8078 135.84 21.8078C135.504 21.8078 135.258 21.7538 135.102 21.6458C134.946 21.5498 134.85 21.4238 134.814 21.2678C134.778 21.0998 134.76 20.9138 134.76 20.7098V17.2178C134.76 16.7738 134.706 16.3898 134.598 16.0658C134.49 15.7418 134.328 15.4898 134.112 15.3098C133.908 15.1298 133.638 15.0398 133.302 15.0398C132.942 15.0398 132.63 15.1298 132.366 15.3098C132.114 15.4778 131.916 15.7238 131.772 16.0478C131.628 16.3718 131.556 16.7678 131.556 17.2358V20.7458C131.556 20.9498 131.526 21.1418 131.466 21.3218C131.406 21.4898 131.286 21.6158 131.106 21.6998C130.938 21.7958 130.692 21.8318 130.368 21.8078C130.068 21.7958 129.846 21.7358 129.702 21.6278C129.57 21.5198 129.486 21.3878 129.45 21.2318C129.426 21.0638 129.414 20.8898 129.414 20.7098V17.2178C129.414 16.7738 129.36 16.3898 129.252 16.0658C129.144 15.7298 128.982 15.4778 128.766 15.3098C128.562 15.1298 128.286 15.0398 127.938 15.0398C127.566 15.0398 127.248 15.1358 126.984 15.3278C126.732 15.5198 126.54 15.7778 126.408 16.1018C126.276 16.4258 126.21 16.7978 126.21 17.2178V20.7458C126.21 20.9378 126.186 21.1178 126.138 21.2858C126.102 21.4538 126.006 21.5798 125.85 21.6638C125.706 21.7598 125.46 21.8078 125.112 21.8078Z" fill="#040303"/>
<path d="M143.193 21.9338C142.413 21.9338 141.729 21.8078 141.141 21.5558C140.565 21.3038 140.079 20.9618 139.683 20.5298C139.299 20.0858 139.005 19.5938 138.801 19.0538C138.609 18.5018 138.513 17.9318 138.513 17.3438C138.513 16.4798 138.711 15.7118 139.107 15.0398C139.503 14.3678 140.049 13.8398 140.745 13.4558C141.453 13.0718 142.263 12.8798 143.175 12.8798C143.823 12.8798 144.393 12.9818 144.885 13.1858C145.377 13.3898 145.785 13.6598 146.109 13.9958C146.445 14.3198 146.697 14.6798 146.865 15.0758C147.045 15.4718 147.135 15.8558 147.135 16.2278C147.135 16.8638 146.979 17.3258 146.667 17.6138C146.367 17.9018 145.989 18.0458 145.533 18.0458H140.781C140.793 18.4538 140.919 18.8078 141.159 19.1078C141.411 19.4078 141.723 19.6418 142.095 19.8098C142.479 19.9658 142.869 20.0438 143.265 20.0438C143.565 20.0438 143.829 20.0258 144.057 19.9898C144.297 19.9538 144.501 19.9118 144.669 19.8638C144.837 19.8038 144.981 19.7438 145.101 19.6838C145.233 19.6238 145.353 19.5698 145.461 19.5218C145.569 19.4738 145.671 19.4438 145.767 19.4318C145.899 19.4198 146.031 19.4498 146.163 19.5218C146.295 19.5938 146.403 19.7198 146.487 19.8998C146.559 20.0198 146.607 20.1338 146.631 20.2418C146.667 20.3378 146.685 20.4338 146.685 20.5298C146.685 20.7698 146.541 20.9978 146.253 21.2138C145.965 21.4178 145.557 21.5858 145.029 21.7178C144.513 21.8618 143.901 21.9338 143.193 21.9338ZM140.781 16.7678H144.471C144.675 16.7678 144.831 16.7378 144.939 16.6778C145.047 16.6058 145.101 16.4618 145.101 16.2458C145.101 15.9698 145.017 15.7238 144.849 15.5078C144.681 15.2798 144.453 15.1058 144.165 14.9858C143.877 14.8538 143.541 14.7878 143.157 14.7878C142.713 14.7878 142.311 14.8778 141.951 15.0578C141.591 15.2258 141.303 15.4598 141.087 15.7598C140.883 16.0598 140.781 16.3958 140.781 16.7678Z" fill="#040303"/>
<path d="M149.854 21.8078C149.53 21.8078 149.29 21.7538 149.134 21.6458C148.99 21.5498 148.9 21.4238 148.864 21.2678C148.828 21.0998 148.81 20.9138 148.81 20.7098V13.9778C148.81 13.7858 148.828 13.6118 148.864 13.4558C148.9 13.2998 148.996 13.1798 149.152 13.0958C149.308 12.9998 149.548 12.9518 149.872 12.9518C150.16 12.9518 150.376 12.9878 150.52 13.0598C150.664 13.1318 150.76 13.2218 150.808 13.3298C150.856 13.4378 150.88 13.5458 150.88 13.6538C150.892 13.7618 150.904 13.8458 150.916 13.9058L150.844 14.4818C150.916 14.2898 151.036 14.1038 151.204 13.9238C151.372 13.7438 151.576 13.5818 151.816 13.4378C152.056 13.2818 152.314 13.1618 152.59 13.0778C152.878 12.9818 153.172 12.9338 153.472 12.9338C154.036 12.9338 154.54 13.0358 154.984 13.2398C155.428 13.4438 155.806 13.7318 156.118 14.1038C156.442 14.4758 156.688 14.9198 156.856 15.4358C157.024 15.9398 157.108 16.5098 157.108 17.1458V20.7278C157.108 20.9318 157.084 21.1178 157.036 21.2858C157 21.4418 156.91 21.5678 156.766 21.6638C156.622 21.7598 156.376 21.8078 156.028 21.8078C155.692 21.8078 155.446 21.7538 155.29 21.6458C155.134 21.5498 155.038 21.4238 155.002 21.2678C154.966 21.0998 154.948 20.9138 154.948 20.7098V17.1278C154.948 16.6958 154.87 16.3238 154.714 16.0118C154.57 15.6998 154.354 15.4598 154.066 15.2918C153.79 15.1238 153.436 15.0398 153.004 15.0398C152.584 15.0398 152.218 15.1298 151.906 15.3098C151.594 15.4778 151.354 15.7178 151.186 16.0298C151.018 16.3418 150.934 16.7078 150.934 17.1278V20.7278C150.934 20.9318 150.916 21.1178 150.88 21.2858C150.844 21.4418 150.748 21.5678 150.592 21.6638C150.448 21.7598 150.202 21.8078 149.854 21.8078Z" fill="#040303"/>
<path d="M163.242 21.8258C162.654 21.8258 162.15 21.7658 161.73 21.6458C161.31 21.5258 160.968 21.3398 160.704 21.0878C160.44 20.8358 160.242 20.5118 160.11 20.1158C159.99 19.7078 159.93 19.2278 159.93 18.6758V11.0438C159.93 10.8278 159.948 10.6418 159.984 10.4858C160.032 10.3298 160.128 10.2098 160.272 10.1258C160.428 10.0298 160.668 9.98177 160.992 9.98177C161.328 9.98177 161.568 10.0298 161.712 10.1258C161.868 10.2218 161.964 10.3538 162 10.5218C162.048 10.6778 162.072 10.8518 162.072 11.0438V18.6038C162.072 18.8558 162.09 19.0598 162.126 19.2158C162.174 19.3718 162.24 19.4918 162.324 19.5758C162.42 19.6478 162.54 19.7018 162.684 19.7378C162.84 19.7618 163.026 19.7738 163.242 19.7738C163.47 19.7738 163.662 19.7918 163.818 19.8278C163.986 19.8638 164.112 19.9538 164.196 20.0978C164.28 20.2298 164.322 20.4518 164.322 20.7638C164.322 21.0998 164.268 21.3458 164.16 21.5018C164.064 21.6458 163.932 21.7358 163.764 21.7718C163.608 21.8078 163.434 21.8258 163.242 21.8258ZM159.192 13.1318L161.046 13.1498L163.53 13.0778C163.734 13.0778 163.914 13.1018 164.07 13.1498C164.238 13.1858 164.37 13.2818 164.466 13.4378C164.562 13.5818 164.61 13.8218 164.61 14.1578C164.61 14.4698 164.562 14.7038 164.466 14.8598C164.37 15.0158 164.244 15.1178 164.088 15.1658C163.932 15.2018 163.752 15.2198 163.548 15.2198L161.136 15.1838L159.138 15.2018C158.838 15.1898 158.628 15.1058 158.508 14.9498C158.4 14.7818 158.346 14.5118 158.346 14.1398C158.346 13.7918 158.412 13.5398 158.544 13.3838C158.688 13.2158 158.904 13.1318 159.192 13.1318Z" fill="#040303"/>
</svg>
