// Vitest Snapshot v1, https://vitest.dev/guide/snapshot.html

exports[`NumberRange > should match snapshot 1`] = `
{
  "asFragment": [Function],
  "baseElement": <body>
    <div>
      <div
        class="_container_87a21e"
      >
        <div
          class="_container_b22532"
        >
          <input
            autocomplete="off"
            class="_input_76cf42 _input_b22532"
            data-testid="input-field"
            name="min"
            placeholder="От"
            value="2000"
          />
          <div
            class="_element_b22532 _postfix_b22532"
          >
            $
          </div>
        </div>
        <div
          class="_container_b22532"
        >
          <input
            autocomplete="off"
            class="_input_76cf42 _input_b22532"
            data-testid="input-field"
            name="max"
            placeholder="До"
            value="10000"
          />
          <div
            class="_element_b22532 _postfix_b22532"
          >
            $
          </div>
        </div>
      </div>
    </div>
  </body>,
  "container": <div>
    <div
      class="_container_87a21e"
    >
      <div
        class="_container_b22532"
      >
        <input
          autocomplete="off"
          class="_input_76cf42 _input_b22532"
          data-testid="input-field"
          name="min"
          placeholder="От"
          value="2000"
        />
        <div
          class="_element_b22532 _postfix_b22532"
        >
          $
        </div>
      </div>
      <div
        class="_container_b22532"
      >
        <input
          autocomplete="off"
          class="_input_76cf42 _input_b22532"
          data-testid="input-field"
          name="max"
          placeholder="До"
          value="10000"
        />
        <div
          class="_element_b22532 _postfix_b22532"
        >
          $
        </div>
      </div>
    </div>
  </div>,
  "debug": [Function],
  "findAllByAltText": [Function],
  "findAllByDisplayValue": [Function],
  "findAllByLabelText": [Function],
  "findAllByPlaceholderText": [Function],
  "findAllByRole": [Function],
  "findAllByTestId": [Function],
  "findAllByText": [Function],
  "findAllByTitle": [Function],
  "findByAltText": [Function],
  "findByDisplayValue": [Function],
  "findByLabelText": [Function],
  "findByPlaceholderText": [Function],
  "findByRole": [Function],
  "findByTestId": [Function],
  "findByText": [Function],
  "findByTitle": [Function],
  "getAllByAltText": [Function],
  "getAllByDisplayValue": [Function],
  "getAllByLabelText": [Function],
  "getAllByPlaceholderText": [Function],
  "getAllByRole": [Function],
  "getAllByTestId": [Function],
  "getAllByText": [Function],
  "getAllByTitle": [Function],
  "getByAltText": [Function],
  "getByDisplayValue": [Function],
  "getByLabelText": [Function],
  "getByPlaceholderText": [Function],
  "getByRole": [Function],
  "getByTestId": [Function],
  "getByText": [Function],
  "getByTitle": [Function],
  "queryAllByAltText": [Function],
  "queryAllByDisplayValue": [Function],
  "queryAllByLabelText": [Function],
  "queryAllByPlaceholderText": [Function],
  "queryAllByRole": [Function],
  "queryAllByTestId": [Function],
  "queryAllByText": [Function],
  "queryAllByTitle": [Function],
  "queryByAltText": [Function],
  "queryByDisplayValue": [Function],
  "queryByLabelText": [Function],
  "queryByPlaceholderText": [Function],
  "queryByRole": [Function],
  "queryByTestId": [Function],
  "queryByText": [Function],
  "queryByTitle": [Function],
  "rerender": [Function],
  "unmount": [Function],
}
`;
